<svg width="320" height="154" fill="none" xmlns="http://www.w3.org/2000/svg">
  <path d="M270 71c1-11 7-20 17-25 10-6 21-5 31 0-1 11-6 20-16 25-10 6-21 5-32 0zM3 105c-5-30 3-60 26-80C51 4 83-4 114 3c5 30-3 60-26 80a97 97 0 01-85 22zm107 12c7-14 20-23 36-25 15-1 31 6 41 18-7 14-20 24-35 25-16 1-31-5-42-18z" stroke="#8DC63F"/>
</svg>
