<svg width="642" height="489" fill="none" xmlns="http://www.w3.org/2000/svg">
  <path d="M484 227c3-36 21-67 53-83 31-17 69-15 102 1-3 35-22 66-53 83-32 16-68 15-102-1zM5 416c-16-97 10-193 82-259 73-66 174-89 273-70 16 96-10 193-82 259-73 66-171 89-273 70zM304 413c24-45 65-76 115-81 51-4 100 18 134 57-23 45-64 76-115 81-50 4-98-17-134-57z" stroke="#8DC63F"/>
</svg>
