<svg xmlns="http://www.w3.org/2000/svg" width="63" height="259" fill="none">
  <path fill="#4D4D4F" d="M23.1 171.1c-1.1.9-2 2-2.7 3.2a17.4 17.4 0 00-1.9 11c.6 4 2.6 7.4 5.9 10.1 4 3.2 9.3 4.8 15.9 4.8a23 23 0 0015.7-5 18 18 0 005.7-14.1c0-1.5-.1-2.8-.3-3.8l-.8-3.2-1.1-2.9-1.1-2.5a2 2 0 00-1.9-1.2h-6.9c-1.6 0-2.6 2.5-1.5 3.7l1.2 1.5a22.1 22.1 0 012.5 5.2c.3 1 .4 2.1.4 3.2 0 2.9-.9 5.1-2.8 6.7a12.4 12.4 0 01-6.7 2.4v-21.3a2 2 0 00-2-2h-3.4c-3.2 0-6 .4-8.2 1.1-2.4.6-4.4 1.7-6 3.1zM33.8 190l-1.5-.4c-1-.4-1.9-.9-2.6-1.5a6.3 6.3 0 01-1.7-2.3 8.8 8.8 0 010-6c.3-.7.8-1.3 1.5-1.8.6-.5 1.5-.8 2.5-1.1.6-.1 1.2-.3 1.9-.3V190h-.1zm-16.1 36.5l.7 5.9c.1.9.8 1.6 1.6 1.8l23.6 4.7-22 9.8a2 2 0 00-1.2 2.1l.7 6.1c.1.6.5 1.2 1 1.5.6.3 1.3.3 1.8.1l33.6-15.7c2.2-1 3.5-3.3 3.2-5.7-.3-2.4-2-4.3-4.4-4.8l-36.2-7.9a2 2 0 00-1.8.5c-.4.3-.7 1-.6 1.6zM36 123.2l-.8 3.4-.7 2.7c-.5 1.7-1 2.5-1.4 2.8-.5.5-1.4.6-2.1.6-1.4 0-2-.6-2.3-1.1-1.3-2-1.2-5.2 0-8.2a13 13 0 012.7-4.3 3 3 0 00.5-1.6 2 2 0 00-2-2h-6.8a2 2 0 00-1.7 1 21.7 21.7 0 00-3 11.5c0 4.3 1.3 7.9 3.7 10.5 2.5 2.7 5.8 4.1 9.7 4.1 2.9 0 5.4-.7 7.4-2.1a12 12 0 004.6-6.7l.9-3.4.7-2.8c.5-2 1.1-2.7 1.4-3 .5-.4 1.3-.5 2-.5 1.2 0 1.6.2 1.7.2l1 .9a8.9 8.9 0 01.4 7c-.3 1.1-.7 2-1.2 2.9l-1.4 2.3L48 139a3 3 0 00-.5 1.6c0 1.1.9 2 2 2h7.1a2 2 0 001.7-1 30 30 0 002.3-5.3 22.8 22.8 0 00.1-13.5 15 15 0 00-3-4.8 12.3 12.3 0 00-4.4-3c-1.7-.7-3.5-1-5.3-1-3.2 0-5.9.8-7.8 2.3a14 14 0 00-4.2 6.9zM24.7 5.9a12.1 12.1 0 00-6.3 9.4c-.4 3.3.1 8 1.6 12.5l1.8 4.5c.4.8 1.2 1.3 2.1 1.1l6.4-.8c1.4-.2 2.1-2.2 1.4-3.4-1-1.5-1.8-3.1-2.4-4.7a16.4 16.4 0 01-1.3-7c0-.7.2-1.4.4-1.9.2-.4.6-.8 1.1-1.1.5-.3 1.2-.5 2-.7l1.6 6.4a25 25 0 003.1 7c1.6 2.3 3.6 3.9 5.9 4.8 2.3.9 4.9 1.1 7.8.7a15.7 15.7 0 009.4-4.8 11.5 11.5 0 002.8-9.2 14.5 14.5 0 00-3.1-7.5l-.9-1A2 2 0 0059.6 8l-.7-5.6A2 2 0 0056.6.7L31.1 4a21 21 0 00-6.4 1.9zm26.8 15.6c-.6.8-1.7 1.3-3.3 1.5-1.4.2-2.4 0-3.2-.5a7.1 7.1 0 01-2.2-2.6c-.5-1.1-1-2.6-1.5-4.4l-.7-2.8 7.2-1c1 .8 1.9 1.8 2.7 2.8 1.8 2 2.1 5.4 1 7zM37.1 71.9L25.7 60.5c-.4-.4-.9-.6-1.5-.6s-1.1.3-1.4.7l-3.5 4c-.7.8-.7 2.1.1 2.8l11.8 11.3-17.8-1a2 2 0 00-2.1 1.9l-.3 5.7a2 2 0 001.9 2.1l45 2.7a2 2 0 002.1-1.9l.3-5.7a2 2 0 00-1.9-2.1l-14.9-.9 16.7-10.2c.6-.3.9-.9 1-1.6l.5-7.5c0-.8-.3-1.5-1-1.9a2 2 0 00-2.1 0L37.1 71.9z"/>
  <path fill="#fff" d="M15.1 184.3c-4.2-.8-8.4.4-11.3 3.5a14.1 14.1 0 00-3.1 12.1c4.1.8 8.3-.4 11.3-3.5 3-3.3 4-7.7 3.1-12.1.1 0 0 0 0 0s0-.1 0 0zm0-1.6c-4.2.8-8.4-.4-11.3-3.5a14.1 14.1 0 01-3.1-12.1c4.1-.8 8.3.4 11.3 3.5 3 3.2 4 7.7 3.1 12.1.1 0 0 0 0 0z"/>
</svg>
