<svg width="129" height="128" fill="none" xmlns="http://www.w3.org/2000/svg">
  <path d="M90 37.3h-1c-.4 0-.6.3-.6.6 0 .4.2.6.6.6h1c.4 0 .6-.2.6-.6 0-.3-.2-.6-.6-.6zm-52.7-1.9h0zm33.5 82H72h-1.2zM54.2 87c0 .4-.2.6-.6.6H39.4c-.3 0-.6-.2-.6-.6 0-.3.3-.6.6-.6h14.2c.4 0 .6.3.6.6zm41.5 7.1c0 .4-.2.6-.6.6h-19c-.3 0-.5-.2-.5-.6 0-.3.2-.6.6-.6h19c.3 0 .5.3.5.6z" fill="#4D4D4F" stroke="#4D4D4F"/>
  <path d="M112.3 56.9h-10.7v-19c0-3.9-3.2-7-7-7H73.1V15.3a2.4 2.4 0 00-2.4-2.4h-9.5a2.4 2.4 0 00-2.3 2.4v19.8A23.6 23.6 0 0037.6 34l-.2.1.1-1.6V31c0-4.8-1.5-9.2-4.5-12.5-3.7-4.1-9-6-14.8-5h-.4v.4a20 20 0 004 16.5 17 17 0 0012.2 5h.7a23.6 23.6 0 00-11.3 20.2v1.2h-6a2.4 2.4 0 00-2.3 2.4v9.4a2.4 2.4 0 002.4 2.4h1.2v7.1A40.3 40.3 0 0059 118.5h11.8l2.4-.1a40.4 40.4 0 0038-40.2v-7h1.1a2.4 2.4 0 002.4-2.5v-9.4a2.4 2.4 0 00-2.4-2.4zM23 29.4a18 18 0 01-3.9-15c5.2-.8 10.1 1 13.3 4.8a16.8 16.8 0 014 9.4l-.8-1.1a7.5 7.5 0 00-6.7-2.5h-.5l-.1.5a9.4 9.4 0 002 7.6l1.3 1.2a14.5 14.5 0 01-8.6-5zm8.2 2.8a8.3 8.3 0 01-1.8-6.1h.5a6 6 0 014.8 2.1c1 1.2 1.6 2.6 1.7 4.3 0 .6.2 1.3 0 1.9h-1.1c-1.6-.3-3-1-4-2.2zM59 79.4H31c-.3 0-.6.2-.6.6s.3.6.6.6H59v13H35.9c-.4 0-.6.3-.6.6 0 .4.2.6.6.6h23v6H44.3c-.4 0-.6.2-.6.5 0 .4.2.6.6.6H59v15.4a39.1 39.1 0 01-39.1-39V71h39v8.3zm0-9.5H17.5c-.6 0-1.2-.6-1.2-1.2v-9.4c0-.6.6-1.2 1.2-1.2H59v11.8zm0-13H24.6v-1.2c0-8.9 5.2-16.6 12.7-20.3h.1a22 22 0 019.7-2.2c4.4 0 8.4 1.2 11.9 3.3v20.4zm13 60.4H60.2V15.4c0-.6.6-1.2 1.1-1.2h9.5c.6 0 1.2.6 1.2 1.2v102zm1.2-78.8h11c.4 0 .6-.2.6-.6s-.2-.6-.6-.6h-11V32h21.3c3.3 0 6 2.6 6 6v2a6.4 6.4 0 00-5.3-2.7H93c-.4 0-.6.3-.6.6s.2.6.6.6h2.2c2.9 0 5.3 2.4 5.3 5.2V57h-6V43.3c0-.4-.2-.6-.6-.6-.3 0-.6.2-.6.6v13.6h-5.9V43.3c0-.4-.2-.6-.6-.6-.3 0-.6.2-.6.6v13.6h-5.9V43.3c0-.4-.2-.6-.6-.6-.3 0-.6.2-.6.6v13.6h-5.9V38.5zm36.7 39.7a39 39 0 01-36.7 39V102H88c.4 0 .6-.2.6-.6 0-.3-.2-.6-.6-.6H73.2v-13h11.3c.3 0 .5-.2.5-.6 0-.3-.2-.6-.5-.6H73.2v-6h26.7c.3 0 .6-.1.6-.5s-.3-.6-.6-.6H73.2v-8.3h36.7v7.1zm3.6-9.5c0 .6-.6 1.2-1.2 1.2H73.2V58.1h39.1c.6 0 1.2.6 1.2 1.2v9.4z" fill="#4D4D4F" stroke="#4D4D4F"/>
</svg>
