<svg width="129" height="128" fill="none" xmlns="http://www.w3.org/2000/svg">
  <path d="M98 119.7H31.8a9.5 9.5 0 01-9.5-9.5V19c0-5.3 4.3-9.5 9.5-9.5h66.4c5.2 0 9.5 4.2 9.5 9.5v91.2c0 5.2-4.3 9.5-9.5 9.5zm-66.3-109a8.2 8.2 0 00-8.3 8.3v91.2a8.2 8.2 0 008.3 8.3h66.4a8.2 8.2 0 008.3-8.3V19a8.2 8.2 0 00-8.3-8.3H31.7z" fill="#4D4D4F" stroke="#4D4D4F"/>
  <path d="M93.3 110.8H85c-.3 0-.5-.2-.5-.6 0-.3.2-.6.5-.6h8.3c2.3 0 4.2-1.9 4.2-4.1V23.7c0-2.2-1.9-4.1-4.2-4.1H36.5a4.2 4.2 0 00-4.2 4.1v81.8c0 2.2 1.9 4.1 4.2 4.1h21.9c.3 0 .6.3.6.6 0 .4-.3.6-.6.6h-22a5.3 5.3 0 01-5.3-5.3V23.7a5.3 5.3 0 015.4-5.3h56.8a5.3 5.3 0 015.4 5.3v81.8a5.3 5.3 0 01-5.4 5.3zm-13.2 0H77c-.4 0-.6-.2-.6-.6 0-.3.2-.6.6-.6h3c.4 0 .7.3.7.6 0 .4-.4.6-.6.6z" fill="#4D4D4F" stroke="#4D4D4F"/>
  <path d="M81.1 93.4l-5.8-10.2c.9-1.5 1.2-3.3 1.2-5 0-3.9-2-7.7-5.7-9.7a11 11 0 00-6.4-1.5h0c-.8 0-1.5 0-2.1.3-3 .8-5.3 2.6-6.9 5.2a11.2 11.2 0 00-.3 10.5l-8.7 15v1c.2.2.5.3.8.3l5.1-1c.5-.2.9 0 1 .5l1.5 5c.1.4.4.6.7.6h.2c.3 0 .5-.1.7-.5l8.3-14.4h.8l5.6 9.7c0 .2.4.4.7.4.3 0 .6-.3.7-.5l2-4.5c.1-.4.5-.6.8-.5l5 .6c.4 0 .6-.1.8-.4.2-.3.2-.7 0-1zm-25.3 9.2l-1.4-4.2a2 2 0 00-2-1.5H52l-4.3 1 8-13.8a12.5 12.5 0 003.7 3.7 11 11 0 004 1.4l-7.6 13.4zm9.6-14.3H64a10.6 10.6 0 01-7.7-5.1l-.4-.6-.2-.7c-1.1-2.7-1-6 .7-8.7a10 10 0 016.1-4.7l1.8-.4h1.5l.9.2c1.3.2 2.5.6 3.5 1.3 1.2.6 2.2 1.5 2.9 2.5l1 1.4.9 2.2c.6 2.2.4 4.3-.4 6.3-.1.5-.3.8-.6 1.3a10 10 0 01-6.1 4.8l-1.7.2h-.8zm10.2 4.5a2 2 0 00-2.2 1.2l-1.6 3.9-5-8.7c.5 0 .8 0 1.3-.2a11 11 0 006.5-4.7l5.2 8.9-4.2-.4z" fill="#4D4D4F" stroke="#4D4D4F"/>
  <path d="M71.7 76.5l-.1-.2-.2-.7-.3-.6a7 7 0 00-2.6-2.6l-.7-.3-1.4-.5c-.8-.1-1.6-.2-2.4 0h-.3l-.7.3c-.4 0-.6.2-.9.3-.8.4-1.6 1-2.3 1.9l-.6.8v.3c-.3.4-.5.8-.6 1.3-.2.8-.3 1.5-.2 2.4v.8l.3.7a6.7 6.7 0 004.8 4.5l1.3.2H66l.6-.1.3-.1a6.5 6.5 0 004.6-4.3l.3-1.4c.2-1 0-2-.1-2.7zm-.8 2.6c-.2.7-.4 1.3-.8 2a6 6 0 01-2.7 2.3l-.7.3-.6.1a5 5 0 01-1.8 0c-.5 0-1-.2-1.5-.4 0 0-.3 0-.4-.2a5.8 5.8 0 01-2.8-4.2 1.4 1.4 0 010-1v-.3l.2-1.1.1-.3c.1-.4.2-.7.5-.9l.7-1a3.3 3.3 0 011.1-1 3.1 3.1 0 01.9-.4c.7-.3 1.4-.4 2.1-.4a5 5 0 012.1.4l.8.4c.5.3.8.6 1 .9.7.5 1.1 1.2 1.4 2l.2.7v0l.2.7v1.4zm16-43.5h-44c-.3 0-.5-.3-.5-.6s.2-.6.6-.6h43.8c.4 0 .6.2.6.6 0 .3-.2.6-.6.6zm0 9.4h-44c-.3 0-.5-.2-.5-.6 0-.3.2-.5.6-.5h43.8c.4 0 .6.2.6.5 0 .4-.2.6-.6.6zm0 9.5h-44c-.3 0-.5-.2-.5-.6 0-.3.2-.6.6-.6h43.8c.4 0 .6.3.6.6 0 .4-.2.6-.6.6z" fill="#4D4D4F" stroke="#4D4D4F"/>
</svg>
