<svg width="172" height="35" fill="none" xmlns="http://www.w3.org/2000/svg">
  <g clip-path="url(#clip0)">
    <path d="M32.2 14.4a.8.8 0 01-.7-.8c0-6-4.8-11-10.6-11A.8.8 0 0120 2c0-.5.3-.8.8-.8 6.7 0 12 5.6 12 12.5.1.5-.2.8-.7.8z" fill="#894083"/>
    <path d="M27.3 14.4a.8.8 0 01-.7-.8c0-3-2.6-5.6-5.7-5.6a.8.8 0 01-.8-.7c0-.5.3-.8.8-.8 4 0 7.2 3.2 7.2 7 0 .6-.3.9-.8.9zM22.7 14.3a.8.8 0 01-.5-.8c0-.6-.5-1.1-1.2-1.1a.7.7 0 01-.6-.5c-.2-.5.2-1 .7-1 1.5.1 2.6 1.3 2.5 2.7 0 .5-.5.8-1 .7z" fill="#894083"/>
    <path d="M17 34.1a17 17 0 0017-17c0-.3-.2-.5-.5-.5H18V.7c0-.3-.2-.5-.5-.5H17a17 17 0 100 34zm14.9-14.9a15 15 0 01-2.6 6.5c-.2.3-.5.3-.8.2-2.3-1.5-4-3.9-4.6-6.6-.1-.4.2-.7.5-.7h7c.3 0 .5.3.5.6zm-13.3-.6H21c.3 0 .5.2.6.5.6 3.4 2.5 6.3 5.3 8.2.3.2.3.6 0 .8a15 15 0 01-8.4 3.8.5.5 0 01-.6-.5V19.2c0-.3.3-.6.6-.6zm-16 0h7.1c.4 0 .6.3.6.7-.6 2.8-2.4 5.2-4.8 6.6-.3.2-.6.1-.8-.1a14.7 14.7 0 01-2.6-6.6c0-.3.2-.6.6-.6zM15.5 32c-3.2-.4-6.1-1.7-8.4-3.8-.3-.2-.3-.7 0-.8 2.9-2 4.9-4.9 5.4-8.3 0-.3.3-.5.6-.5h2.4c.3 0 .6.2.6.5v12.3c0 .4-.3.6-.6.6zM16 2.8V16c0 .3-.3.6-.6.6h-2.3a.6.6 0 01-.6-.6c-.3-3.8-2.3-7.1-5.4-9.2a.6.6 0 010-.9 15 15 0 018.3-3.6c.3 0 .6.2.6.5zM5.6 8.2C8.2 10 10 12.7 10.4 16c0 .4-.2.7-.5.7H2.6a.5.5 0 01-.6-.7c.3-2.8 1.2-5.4 2.8-7.5.2-.3.5-.3.8-.2z" fill="#FF8600"/>
    <path d="M71 8v18.2h-3.3V10.8h-7.2l-.1 4.6c-.1 2.5-.3 4.6-.7 6.2a7.9 7.9 0 01-1.6 3.6c-.7.8-1.7 1.2-3 1.2-.4 0-1 0-1.8-.2l.2-3 .8.1c1 0 1.8-.6 2.2-1.8.5-1.3.8-3.3.9-6l.2-7.5H71zm11.5 18.3c-1.4 0-2.7-.3-3.8-.9a6.8 6.8 0 01-3.6-6.2c0-1.3.3-2.6 1-3.6.6-1.1 1.5-2 2.6-2.6 1.1-.6 2.4-.9 3.8-.9a8 8 0 013.8 1c1.1.5 2 1.4 2.6 2.5a7 7 0 011 3.6c0 1.4-.3 2.6-1 3.7-.6 1-1.5 2-2.6 2.5a8 8 0 01-3.8 1zm0-2.7a4 4 0 003-1.2c.7-.8 1.1-1.9 1.1-3.2 0-1.3-.4-2.3-1.2-3.1a4 4 0 00-3-1.2 4 4 0 00-2.9 1.2c-.7.8-1.1 1.8-1.1 3.1s.4 2.4 1.1 3.2a4 4 0 003 1.2zm21.8-8.6h-7.4v11.2h-3.3v-14h10.7V15zm8.4 11.3c-1.4 0-2.6-.3-3.8-.9a6.8 6.8 0 01-3.5-6.2c0-1.3.3-2.6.9-3.6.6-1.1 1.5-2 2.6-2.6 1.2-.6 2.4-.9 3.8-.9a8 8 0 013.9 1c1 .5 2 1.4 2.6 2.5a7 7 0 011 3.6c0 1.4-.4 2.6-1 3.7-.6 1-1.5 2-2.6 2.5a8 8 0 01-3.9 1zm0-2.7a4 4 0 003-1.2c.8-.8 1.2-1.9 1.2-3.2 0-1.3-.4-2.3-1.2-3.1a4 4 0 00-3-1.2 4 4 0 00-3 1.2c-.7.8-1 1.8-1 3.1s.3 2.4 1 3.2a4 4 0 003 1.2zm21.7-8.6h-4.9v11.2h-3.2V15h-5v-2.7h13V15zm2.8-2.7h3.3v9.1l7.7-9.1h3v13.9h-3.3V17l-7.7 9.2h-3v-14zm32.1 0v13.9h-3.2V15h-6.8v11.2H156v-14h13.3z" fill="#BFBFBF"/>
  </g>
  <defs>
    <clipPath id="clip0">
      <path fill="#fff" transform="translate(0 .2)" d="M0 0h172v34H0z"/>
    </clipPath>
  </defs>
</svg>
