<svg xmlns="http://www.w3.org/2000/svg" width="151" height="52" fill="none">
  <g clip-path="url(#clip0)">
    <path fill="#575656" d="M50.9 13.8a6.7 6.7 0 00-1.9-1.6c-1.5-1-4.3-1.6-6.4-1.1a9.2 9.2 0 00-6 3.4 14.4 14.4 0 00-2.8 9.4c0 3.9 1 7 3 9.2 1.9 2.2 4.7 3.4 8.2 3.4l2.2-.1a9 9 0 001.8-.5l1.7-.7 1.5-.7c.4-.2.6-.6.6-1.1v-4c0-1-1.4-1.6-2.2-1-.2.3-.5.5-.9.7a9.7 9.7 0 01-3 1.4 6.6 6.6 0 01-2 .3c-1.6 0-2.9-.5-3.8-1.7-.8-.9-1.3-2.2-1.5-3.9H52a1.2 1.2 0 001.2-1.2v-2c0-1.9-.2-3.5-.6-4.8a7 7 0 00-1.6-3.4zM39.8 20l.2-.9c.2-.6.5-1.1 1-1.5.4-.4.8-.8 1.3-1 1-.5 2.7-.5 3.5 0 .4.1.8.5 1 .8.3.3.5.9.6 1.5l.2 1h-7.8zm-21.4-9.6l-3.5.5c-.5 0-1 .4-1 .9l-2.7 13.8-5.8-12.9a1 1 0 00-1.2-.6l-3.5.4c-.4 0-.7.2-1 .6v1L9 34c.6 1.3 2 2 3.3 1.9a3.3 3.3 0 002.8-2.6L19.7 12c0-.4 0-.8-.3-1-.3-.3-.7-.5-1-.5zm60.5 10.8a63.1 63.1 0 01-2-.5l-1.6-.4c-1-.3-1.4-.6-1.6-.9-.2-.2-.3-.8-.3-1.1 0-.9.3-1.2.6-1.4 1.2-.8 3-.8 4.8 0 1 .3 1.8 1 2.6 1.5.2.2.6.3.9.3a1.2 1.2 0 001.2-1.2v-4c0-.4-.3-.8-.6-1a13.5 13.5 0 00-6.8-1.8 9 9 0 00-6.2 2.2 7.3 7.3 0 00-2.4 5.7c0 1.7.5 3.1 1.3 4.3a7.1 7.1 0 003.9 2.7l2 .6 1.6.4c1.2.3 1.6.7 1.7.7.3.3.4.8.4 1.2 0 .7-.1 1-.2 1 0 .2-.2.4-.5.7l-1 .3c-1.1.2-2.1.2-3.1 0a10.1 10.1 0 01-1.7-.8c-.6-.2-1-.6-1.4-.8l-1-.8a2 2 0 00-.9-.2 1.2 1.2 0 00-1.2 1.1v4.2c0 .4.3.9.6 1 .9.5 1.9 1 3 1.4a12.8 12.8 0 008 0c1-.3 2-1 2.8-1.6a8 8 0 001.8-2.7c.4-1 .6-2 .6-3.1a7 7 0 00-1.4-4.6 7.1 7.1 0 00-3.9-2.4zm68.9-6.6a6.7 6.7 0 00-5.4-3.6c-2-.3-4.8 0-7.3.9a45.9 45.9 0 00-2.7 1c-.4.3-.7.7-.6 1.2l.5 3.7c0 .9 1.2 1.3 2 .9l2.7-1.5a10 10 0 014-.7c.5 0 1 0 1.2.2l.7.7.4 1.2-3.8 1a13 13 0 00-4 1.8 7.4 7.4 0 00-2.9 3.5 9 9 0 00-.4 4.6c.2 1 .5 2.1 1 3.1.4 1 1 1.8 1.8 2.4a6.2 6.2 0 002.5 1.4c1 .2 1.9.3 3 .2a9 9 0 002.5-.7c.6-.2 1.2-.7 1.8-1l.6-.6c.2.6.7 1 1.3.9l3.3-.5c.7 0 1.1-.6 1-1.3l-2-15c-.4-1.5-.7-2.8-1.2-3.8zm-9.2 15.7c-.4-.3-.7-1-.8-2-.1-.8 0-1.4.3-1.8.4-.5.9-1 1.5-1.3.6-.3 1.6-.6 2.7-.8l1.6-.5.6 4.3a14.5 14.5 0 01-1.6 1.6c-1.3 1-3.3 1.2-4.3.5zM109.1 22l6.6-6.7c.3-.3.4-.5.4-.9 0-.3-.2-.5-.5-.8l-2.3-2c-.5-.5-1.1-.5-1.6 0l-6.6 7 .6-10.4c0-.7-.4-1.2-1-1.3l-3.4-.2c-.7 0-1.2.4-1.3 1.1l-1.5 26.4c0 .7.4 1.2 1.1 1.3l3.3.2c.7 0 1.2-.4 1.3-1.1l.5-8.8 6 9.8c.1.3.5.5.9.6l4.4.3c.4 0 .8-.2 1-.6.3-.5.3-.9 0-1.3L109.2 22z"/>
    <path fill="#93C01C" d="M23.2 49.9l.1-1.9v-7.7h1.5v3.9c.3-.6 1-1 1.8-1 1.5 0 2.5 1.3 2.5 3.3 0 2.4-1.4 3.5-2.7 3.5a2 2 0 01-1.9-1v1h-1.3v-.1zm1.6-2.7v.4c.1.7.6 1.2 1.3 1.2 1 0 1.5-.9 1.5-2.2 0-1.2-.5-2.2-1.5-2.2-.6 0-1.2.5-1.3 1.2l-.1.5v1zm12.4-5.8c0 .5-.3 1-.8 1s-.9-.5-.9-1 .4-1 .9-1c.5.1.8.5.8 1zm-1.6 8.5v-6.6h1.6v6.6h-1.6zm14-3.4c0 2.4-1.6 3.5-3.1 3.5-1.7 0-3-1.3-3-3.4 0-2.2 1.3-3.5 3-3.5 1.9 0 3 1.3 3 3.4zm-4.5 0c0 1.3.6 2.3 1.5 2.3.8 0 1.4-1 1.4-2.3 0-1-.4-2.2-1.4-2.2-1 0-1.5 1.2-1.5 2.3zm18.6-1.3v-2h1.2v1a2 2 0 012-1.1c.7 0 1.3.5 1.6 1.2.1-.4.4-.7.7-.9.4-.2.7-.4 1.2-.4 1 0 2 .8 2 2.9v3.9h-1.5V46c0-1-.3-1.7-1-1.7-.5 0-.8.4-1 .8l-.1.6v4h-1.4V46c0-1-.4-1.6-1-1.6-.7 0-1 .5-1.2 1v4.4h-1.5v-4.6zm19 4.7l-.2-.8c-.3.5-1 .9-1.7.9-1.2 0-1.9-1-1.9-2 0-1.7 1.4-2.5 3.5-2.5 0-.5-.2-1.2-1.2-1.2-.6 0-1.2.1-1.6.5l-.3-1.1c.4-.4 1.2-.6 2.1-.6 2 0 2.5 1.3 2.5 2.8v4h-1.3zm-.3-3.3c-1 0-2 .3-2 1.3 0 .7.3 1 .8 1 .6 0 1-.5 1.2-1v-1.3zm8.2-1.2v-2.1h1.2v1.2h.2c.2-1 1-1.4 1.6-1.4h.3v1.5h-.4c-.7 0-1.2.4-1.4 1.2v3.9h-1.6v-4.3h.1zm11 .7l.5-.7 1.5-2.1h1.8l-2.2 2.7 2.5 3.9h-1.9l-1.7-3-.5.8v2.2h-1.5v-9.7h1.5v6zm11 .9c0 1.2.8 1.7 1.8 1.7a3 3 0 001.7-.4l.2 1.2c-.5.3-1.2.5-2 .5-2 0-3-1.3-3-3.4 0-1.8 1-3.5 2.8-3.5 2 0 2.6 1.8 2.6 3.2l-.1.7h-4zm2.5-1.1c0-.6-.2-1.6-1.2-1.6s-1.4.9-1.4 1.6h2.6zm9.6-4.5v1.9h1.5v1.2h-1.5v3c0 .7.2 1.1.8 1.1h.6v1.2l-1.1.2c-.5 0-1-.2-1.3-.5-.3-.4-.4-1-.4-2v-3h-.9v-1.3h.9v-1.5l1.4-.3zM43.2 9.8c.4-2.5-.3-5-2.1-6.7a8 8 0 00-7-1.7c-.5 2.4.2 4.9 2 6.6 1.8 1.8 4.4 2.3 7 1.8zm.8 0c-.4-2.5.3-5 2.1-6.7a8 8 0 017-1.7c.5 2.4-.2 4.9-2 6.6a8 8 0 01-7 1.8z"/>
  </g>
  <defs>
    <clipPath id="clip0">
      <path fill="#fff" d="M0 0h151v52H0z"/>
    </clipPath>
  </defs>
</svg>
