<svg width="18" height="20" fill="none" xmlns="http://www.w3.org/2000/svg">
  <path fill="#FF4242" d="M0 .5h18v19H0z"/>
  <path d="M14 11.4a5 5 0 01-5 5.1 5 5 0 01-5-5.1C4 8 6.2 3.5 9 3.5s5 4.3 5 7.9z" fill="#fff"/>
</svg>
