<svg xmlns="http://www.w3.org/2000/svg" width="20" height="17" fill="none">
  <defs/>
  <path fill="#8DC63F" fill-rule="evenodd" d="M17.772 7.99L10.53.748l.707-.708 8.45 8.45-8.45 8.45-.707-.708 7.242-7.242H0v-1h17.772z" clip-rule="evenodd"/>
</svg>
