<svg xmlns="http://www.w3.org/2000/svg" width="22" height="24" fill="none">
  <path fill="#8DC63F" fill-rule="evenodd" d="M1.6.7a.8.8 0 000 1.5h3c.7 0 1.2.6 1.2 1.3v13c0 .4.3.8.8.8H19a2.8 2.8 0 002.3-1.3l.3-.5c.8-1.2 0-2.7-1.5-2.7H9.5a.8.8 0 000 1.5h10.6a.3.3 0 01.3.4l-.4.5a1.3 1.3 0 01-1 .6H7.3V3.4A2.8 2.8 0 004.6.7h-3zm6.4 18a2.3 2.3 0 100 4.6 2.3 2.3 0 000-4.6zm11 0a2.3 2.3 0 100 4.6 2.3 2.3 0 000-4.6zM7.2 21a.8.8 0 111.5 0 .8.8 0 01-1.4 0zm11 0a.8.8 0 111.6 0 .8.8 0 01-1.6 0z" clip-rule="evenodd"/>
</svg>
