<svg xmlns="http://www.w3.org/2000/svg" width="23" height="22" fill="none">
  <defs/>
  <path fill="#8DC63F" fill-rule="evenodd" d="M9.5.8A8.8 8.8 0 1015.2 16l5.6 5.7a.8.8 0 101-1L16.3 15A8.8 8.8 0 009.5.8zM2.2 9.4a7.3 7.3 0 1114.6 0 7.3 7.3 0 01-14.6 0z" clip-rule="evenodd"/>
</svg>
